%YAML 1.1
%TAG !u! tag:unity3d.com,2011:
--- !u!1001 &805703934036890252
PrefabInstance:
  m_ObjectHideFlags: 0
  serializedVersion: 2
  m_Modification:
    m_TransformParent: {fileID: 0}
    m_Modifications:
    - target: {fileID: 8095564211925391007, guid: 131ddf4618cb0724c9e51f6866773f17,
        type: 3}
      propertyPath: m_Name
      value: New Platform (S) Variant
      objectReference: {fileID: 0}
    - target: {fileID: 8095564211925391001, guid: 131ddf4618cb0724c9e51f6866773f17,
        type: 3}
      propertyPath: m_LocalPosition.x
      value: 236.87
      objectReference: {fileID: 0}
    - target: {fileID: 8095564211925391001, guid: 131ddf4618cb0724c9e51f6866773f17,
        type: 3}
      propertyPath: m_LocalPosition.y
      value: 19.05
      objectReference: {fileID: 0}
    - target: {fileID: 8095564211925391001, guid: 131ddf4618cb0724c9e51f6866773f17,
        type: 3}
      propertyPath: m_LocalPosition.z
      value: 0
      objectReference: {fileID: 0}
    - target: {fileID: 8095564211925391001, guid: 131ddf4618cb0724c9e51f6866773f17,
        type: 3}
      propertyPath: m_LocalRotation.x
      value: -0
      objectReference: {fileID: 0}
    - target: {fileID: 8095564211925391001, guid: 131ddf4618cb0724c9e51f6866773f17,
        type: 3}
      propertyPath: m_LocalRotation.y
      value: -0
      objectReference: {fileID: 0}
    - target: {fileID: 8095564211925391001, guid: 131ddf4618cb0724c9e51f6866773f17,
        type: 3}
      propertyPath: m_LocalRotation.z
      value: -0
      objectReference: {fileID: 0}
    - target: {fileID: 8095564211925391001, guid: 131ddf4618cb0724c9e51f6866773f17,
        type: 3}
      propertyPath: m_LocalRotation.w
      value: 1
      objectReference: {fileID: 0}
    - target: {fileID: 8095564211925391001, guid: 131ddf4618cb0724c9e51f6866773f17,
        type: 3}
      propertyPath: m_RootOrder
      value: 0
      objectReference: {fileID: 0}
    - target: {fileID: 8095564211925391001, guid: 131ddf4618cb0724c9e51f6866773f17,
        type: 3}
      propertyPath: m_LocalEulerAnglesHint.x
      value: 0
      objectReference: {fileID: 0}
    - target: {fileID: 8095564211925391001, guid: 131ddf4618cb0724c9e51f6866773f17,
        type: 3}
      propertyPath: m_LocalEulerAnglesHint.y
      value: 0
      objectReference: {fileID: 0}
    - target: {fileID: 8095564211925391001, guid: 131ddf4618cb0724c9e51f6866773f17,
        type: 3}
      propertyPath: m_LocalEulerAnglesHint.z
      value: 0
      objectReference: {fileID: 0}
    - target: {fileID: 8095564211829012870, guid: 131ddf4618cb0724c9e51f6866773f17,
        type: 3}
      propertyPath: m_LocalPosition.x
      value: 1.1
      objectReference: {fileID: 0}
    - target: {fileID: 8095564212668322064, guid: 131ddf4618cb0724c9e51f6866773f17,
        type: 3}
      propertyPath: m_LocalPosition.x
      value: -0.56
      objectReference: {fileID: 0}
    - target: {fileID: 8095564212668322064, guid: 131ddf4618cb0724c9e51f6866773f17,
        type: 3}
      propertyPath: m_LocalPosition.y
      value: -0.36
      objectReference: {fileID: 0}
    - target: {fileID: 8095564211829012871, guid: 131ddf4618cb0724c9e51f6866773f17,
        type: 3}
      propertyPath: m_IsActive
      value: 1
      objectReference: {fileID: 0}
    - target: {fileID: 8095564211925391006, guid: 131ddf4618cb0724c9e51f6866773f17,
        type: 3}
      propertyPath: m_Points.Array.data[0].x
      value: -1.9
      objectReference: {fileID: 0}
    - target: {fileID: 8095564211925391006, guid: 131ddf4618cb0724c9e51f6866773f17,
        type: 3}
      propertyPath: m_Points.Array.data[1].x
      value: 2.49
      objectReference: {fileID: 0}
    - target: {fileID: 8095564212668322065, guid: 131ddf4618cb0724c9e51f6866773f17,
        type: 3}
      propertyPath: m_IsActive
      value: 1
      objectReference: {fileID: 0}
    m_RemovedComponents: []
  m_SourcePrefab: {fileID: 100100000, guid: 131ddf4618cb0724c9e51f6866773f17, type: 3}
