%YAML 1.1
%TAG !u! tag:unity3d.com,2011:
--- !u!114 &11400000
MonoBehaviour:
  m_ObjectHideFlags: 0
  m_CorrespondingSourceObject: {fileID: 0}
  m_PrefabInstance: {fileID: 0}
  m_PrefabAsset: {fileID: 0}
  m_GameObject: {fileID: 0}
  m_Enabled: 1
  m_EditorHideFlags: 0
  m_Script: {fileID: 11500000, guid: 360466c4ba37026499e0b7ffbe75f3f2, type: 3}
  m_Name: TPRaspberry
  m_EditorClassIdentifier: 
  item: {fileID: 11400000, guid: e6588dd742c56d3498d4401f5ee7e5ce, type: 2}
  replacementTag: ITEM_RASP
