%YAML 1.1
%TAG !u! tag:unity3d.com,2011:
--- !u!1 &5988421297304071780
GameObject:
  m_ObjectHideFlags: 0
  m_CorrespondingSourceObject: {fileID: 0}
  m_PrefabInstance: {fileID: 0}
  m_PrefabAsset: {fileID: 0}
  serializedVersion: 6
  m_Component:
  - component: {fileID: 5988421297304071781}
  m_Layer: 0
  m_Name: GuardAnims
  m_TagString: Untagged
  m_Icon: {fileID: 0}
  m_NavMeshLayer: 0
  m_StaticEditorFlags: 0
  m_IsActive: 1
--- !u!4 &5988421297304071781
Transform:
  m_ObjectHideFlags: 0
  m_CorrespondingSourceObject: {fileID: 0}
  m_PrefabInstance: {fileID: 0}
  m_PrefabAsset: {fileID: 0}
  m_GameObject: {fileID: 5988421297304071780}
  m_LocalRotation: {x: 0, y: 0, z: 0, w: 1}
  m_LocalPosition: {x: -7.390672, y: -11.55, z: 0}
  m_LocalScale: {x: 1, y: 1, z: 1}
  m_Children:
  - {fileID: 945937160676952515}
  m_Father: {fileID: 0}
  m_RootOrder: 0
  m_LocalEulerAnglesHint: {x: 0, y: 0, z: 0}
--- !u!95 &5988421298792448358
Animator:
  serializedVersion: 3
  m_ObjectHideFlags: 0
  m_CorrespondingSourceObject: {fileID: 0}
  m_PrefabInstance: {fileID: 0}
  m_PrefabAsset: {fileID: 0}
  m_GameObject: {fileID: 2138560120852054159}
  m_Enabled: 1
  m_Avatar: {fileID: 0}
  m_Controller: {fileID: 9100000, guid: aa8e8f04516df4308ad4ecd8bc02c822, type: 2}
  m_CullingMode: 0
  m_UpdateMode: 0
  m_ApplyRootMotion: 0
  m_LinearVelocityBlending: 0
  m_WarningMessage: 
  m_HasTransformHierarchy: 1
  m_AllowConstantClipSamplingOptimization: 1
  m_KeepAnimatorControllerStateOnDisable: 0
--- !u!1001 &5988421298792448347
PrefabInstance:
  m_ObjectHideFlags: 0
  serializedVersion: 2
  m_Modification:
    m_TransformParent: {fileID: 5988421297304071781}
    m_Modifications:
    - target: {fileID: -8794546240192951227, guid: 9a111df5ba1764633ae982cecde4ff54,
        type: 3}
      propertyPath: m_LocalRotation.x
      value: 0
      objectReference: {fileID: 0}
    - target: {fileID: -8794546240192951227, guid: 9a111df5ba1764633ae982cecde4ff54,
        type: 3}
      propertyPath: m_LocalRotation.y
      value: 0
      objectReference: {fileID: 0}
    - target: {fileID: -8794546240192951227, guid: 9a111df5ba1764633ae982cecde4ff54,
        type: 3}
      propertyPath: m_LocalRotation.z
      value: -0.75129294
      objectReference: {fileID: 0}
    - target: {fileID: -8794546240192951227, guid: 9a111df5ba1764633ae982cecde4ff54,
        type: 3}
      propertyPath: m_LocalRotation.w
      value: 0.659969
      objectReference: {fileID: 0}
    - target: {fileID: -8794546240192951227, guid: 9a111df5ba1764633ae982cecde4ff54,
        type: 3}
      propertyPath: m_LocalEulerAnglesHint.z
      value: 0
      objectReference: {fileID: 0}
    - target: {fileID: -7088152331788887073, guid: 9a111df5ba1764633ae982cecde4ff54,
        type: 3}
      propertyPath: m_LocalRotation.x
      value: 0
      objectReference: {fileID: 0}
    - target: {fileID: -7088152331788887073, guid: 9a111df5ba1764633ae982cecde4ff54,
        type: 3}
      propertyPath: m_LocalRotation.y
      value: 0
      objectReference: {fileID: 0}
    - target: {fileID: -7088152331788887073, guid: 9a111df5ba1764633ae982cecde4ff54,
        type: 3}
      propertyPath: m_LocalRotation.z
      value: 0.6983614
      objectReference: {fileID: 0}
    - target: {fileID: -7088152331788887073, guid: 9a111df5ba1764633ae982cecde4ff54,
        type: 3}
      propertyPath: m_LocalRotation.w
      value: 0.71574533
      objectReference: {fileID: 0}
    - target: {fileID: -7088152331788887073, guid: 9a111df5ba1764633ae982cecde4ff54,
        type: 3}
      propertyPath: m_LocalEulerAnglesHint.z
      value: 0
      objectReference: {fileID: 0}
    - target: {fileID: -5276805327741540831, guid: 9a111df5ba1764633ae982cecde4ff54,
        type: 3}
      propertyPath: m_LocalRotation.x
      value: 0
      objectReference: {fileID: 0}
    - target: {fileID: -5276805327741540831, guid: 9a111df5ba1764633ae982cecde4ff54,
        type: 3}
      propertyPath: m_LocalRotation.y
      value: 0
      objectReference: {fileID: 0}
    - target: {fileID: -5276805327741540831, guid: 9a111df5ba1764633ae982cecde4ff54,
        type: 3}
      propertyPath: m_LocalRotation.z
      value: -0.018357668
      objectReference: {fileID: 0}
    - target: {fileID: -5276805327741540831, guid: 9a111df5ba1764633ae982cecde4ff54,
        type: 3}
      propertyPath: m_LocalRotation.w
      value: 0.9998315
      objectReference: {fileID: 0}
    - target: {fileID: -5276805327741540831, guid: 9a111df5ba1764633ae982cecde4ff54,
        type: 3}
      propertyPath: m_LocalEulerAnglesHint.z
      value: 0
      objectReference: {fileID: 0}
    - target: {fileID: -4978742284938245859, guid: 9a111df5ba1764633ae982cecde4ff54,
        type: 3}
      propertyPath: m_LocalRotation.x
      value: 0
      objectReference: {fileID: 0}
    - target: {fileID: -4978742284938245859, guid: 9a111df5ba1764633ae982cecde4ff54,
        type: 3}
      propertyPath: m_LocalRotation.y
      value: 0
      objectReference: {fileID: 0}
    - target: {fileID: -4978742284938245859, guid: 9a111df5ba1764633ae982cecde4ff54,
        type: 3}
      propertyPath: m_LocalRotation.z
      value: 0.0042950595
      objectReference: {fileID: 0}
    - target: {fileID: -4978742284938245859, guid: 9a111df5ba1764633ae982cecde4ff54,
        type: 3}
      propertyPath: m_LocalRotation.w
      value: 0.9999908
      objectReference: {fileID: 0}
    - target: {fileID: -4978742284938245859, guid: 9a111df5ba1764633ae982cecde4ff54,
        type: 3}
      propertyPath: m_LocalEulerAnglesHint.z
      value: 0
      objectReference: {fileID: 0}
    - target: {fileID: -4617727409610115988, guid: 9a111df5ba1764633ae982cecde4ff54,
        type: 3}
      propertyPath: m_LocalRotation.y
      value: 0
      objectReference: {fileID: 0}
    - target: {fileID: -4617727409610115988, guid: 9a111df5ba1764633ae982cecde4ff54,
        type: 3}
      propertyPath: m_LocalRotation.z
      value: -0.7041213
      objectReference: {fileID: 0}
    - target: {fileID: -4617727409610115988, guid: 9a111df5ba1764633ae982cecde4ff54,
        type: 3}
      propertyPath: m_LocalRotation.w
      value: 0.7100798
      objectReference: {fileID: 0}
    - target: {fileID: -4617727409610115988, guid: 9a111df5ba1764633ae982cecde4ff54,
        type: 3}
      propertyPath: m_LocalEulerAnglesHint.z
      value: 0
      objectReference: {fileID: 0}
    - target: {fileID: -4548732406984482732, guid: 9a111df5ba1764633ae982cecde4ff54,
        type: 3}
      propertyPath: m_LocalPosition.x
      value: 0.21873677
      objectReference: {fileID: 0}
    - target: {fileID: -4548732406984482732, guid: 9a111df5ba1764633ae982cecde4ff54,
        type: 3}
      propertyPath: m_LocalPosition.y
      value: 2.569162
      objectReference: {fileID: 0}
    - target: {fileID: -4548732406984482732, guid: 9a111df5ba1764633ae982cecde4ff54,
        type: 3}
      propertyPath: m_LocalRotation.x
      value: 0
      objectReference: {fileID: 0}
    - target: {fileID: -4548732406984482732, guid: 9a111df5ba1764633ae982cecde4ff54,
        type: 3}
      propertyPath: m_LocalRotation.y
      value: 0
      objectReference: {fileID: 0}
    - target: {fileID: -4548732406984482732, guid: 9a111df5ba1764633ae982cecde4ff54,
        type: 3}
      propertyPath: m_LocalRotation.z
      value: -0.040440846
      objectReference: {fileID: 0}
    - target: {fileID: -4548732406984482732, guid: 9a111df5ba1764633ae982cecde4ff54,
        type: 3}
      propertyPath: m_LocalRotation.w
      value: 0.9991819
      objectReference: {fileID: 0}
    - target: {fileID: -4548732406984482732, guid: 9a111df5ba1764633ae982cecde4ff54,
        type: 3}
      propertyPath: m_LocalEulerAnglesHint.z
      value: 0
      objectReference: {fileID: 0}
    - target: {fileID: -4319698298246823305, guid: 9a111df5ba1764633ae982cecde4ff54,
        type: 3}
      propertyPath: m_LocalRotation.x
      value: 0
      objectReference: {fileID: 0}
    - target: {fileID: -4319698298246823305, guid: 9a111df5ba1764633ae982cecde4ff54,
        type: 3}
      propertyPath: m_LocalRotation.y
      value: 0
      objectReference: {fileID: 0}
    - target: {fileID: -4319698298246823305, guid: 9a111df5ba1764633ae982cecde4ff54,
        type: 3}
      propertyPath: m_LocalRotation.z
      value: -0.00841482
      objectReference: {fileID: 0}
    - target: {fileID: -4319698298246823305, guid: 9a111df5ba1764633ae982cecde4ff54,
        type: 3}
      propertyPath: m_LocalRotation.w
      value: 0.9999646
      objectReference: {fileID: 0}
    - target: {fileID: -4319698298246823305, guid: 9a111df5ba1764633ae982cecde4ff54,
        type: 3}
      propertyPath: m_LocalEulerAnglesHint.z
      value: 0
      objectReference: {fileID: 0}
    - target: {fileID: -4101900573474763807, guid: 9a111df5ba1764633ae982cecde4ff54,
        type: 3}
      propertyPath: m_LocalRotation.x
      value: 0
      objectReference: {fileID: 0}
    - target: {fileID: -4101900573474763807, guid: 9a111df5ba1764633ae982cecde4ff54,
        type: 3}
      propertyPath: m_LocalRotation.y
      value: 0
      objectReference: {fileID: 0}
    - target: {fileID: -4101900573474763807, guid: 9a111df5ba1764633ae982cecde4ff54,
        type: 3}
      propertyPath: m_LocalRotation.z
      value: 0.771233
      objectReference: {fileID: 0}
    - target: {fileID: -4101900573474763807, guid: 9a111df5ba1764633ae982cecde4ff54,
        type: 3}
      propertyPath: m_LocalRotation.w
      value: -0.63655305
      objectReference: {fileID: 0}
    - target: {fileID: -4101900573474763807, guid: 9a111df5ba1764633ae982cecde4ff54,
        type: 3}
      propertyPath: m_LocalEulerAnglesHint.z
      value: 0
      objectReference: {fileID: 0}
    - target: {fileID: -2584606207307819503, guid: 9a111df5ba1764633ae982cecde4ff54,
        type: 3}
      propertyPath: m_LocalRotation.x
      value: 0
      objectReference: {fileID: 0}
    - target: {fileID: -2584606207307819503, guid: 9a111df5ba1764633ae982cecde4ff54,
        type: 3}
      propertyPath: m_LocalRotation.y
      value: 0
      objectReference: {fileID: 0}
    - target: {fileID: -2584606207307819503, guid: 9a111df5ba1764633ae982cecde4ff54,
        type: 3}
      propertyPath: m_LocalRotation.z
      value: -0.66692144
      objectReference: {fileID: 0}
    - target: {fileID: -2584606207307819503, guid: 9a111df5ba1764633ae982cecde4ff54,
        type: 3}
      propertyPath: m_LocalRotation.w
      value: 0.74512804
      objectReference: {fileID: 0}
    - target: {fileID: -2584606207307819503, guid: 9a111df5ba1764633ae982cecde4ff54,
        type: 3}
      propertyPath: m_LocalEulerAnglesHint.z
      value: 0
      objectReference: {fileID: 0}
    - target: {fileID: 290975743924467866, guid: 9a111df5ba1764633ae982cecde4ff54,
        type: 3}
      propertyPath: m_LocalRotation.x
      value: 0
      objectReference: {fileID: 0}
    - target: {fileID: 290975743924467866, guid: 9a111df5ba1764633ae982cecde4ff54,
        type: 3}
      propertyPath: m_LocalRotation.y
      value: 0
      objectReference: {fileID: 0}
    - target: {fileID: 290975743924467866, guid: 9a111df5ba1764633ae982cecde4ff54,
        type: 3}
      propertyPath: m_LocalRotation.z
      value: 0.28368425
      objectReference: {fileID: 0}
    - target: {fileID: 290975743924467866, guid: 9a111df5ba1764633ae982cecde4ff54,
        type: 3}
      propertyPath: m_LocalRotation.w
      value: 0.9589178
      objectReference: {fileID: 0}
    - target: {fileID: 290975743924467866, guid: 9a111df5ba1764633ae982cecde4ff54,
        type: 3}
      propertyPath: m_LocalEulerAnglesHint.z
      value: 0
      objectReference: {fileID: 0}
    - target: {fileID: 1774139029295037957, guid: 9a111df5ba1764633ae982cecde4ff54,
        type: 3}
      propertyPath: m_LocalRotation.x
      value: 0
      objectReference: {fileID: 0}
    - target: {fileID: 1774139029295037957, guid: 9a111df5ba1764633ae982cecde4ff54,
        type: 3}
      propertyPath: m_LocalRotation.z
      value: 0.99498993
      objectReference: {fileID: 0}
    - target: {fileID: 1774139029295037957, guid: 9a111df5ba1764633ae982cecde4ff54,
        type: 3}
      propertyPath: m_LocalRotation.w
      value: 0.09997538
      objectReference: {fileID: 0}
    - target: {fileID: 1774139029295037957, guid: 9a111df5ba1764633ae982cecde4ff54,
        type: 3}
      propertyPath: m_LocalEulerAnglesHint.z
      value: 0
      objectReference: {fileID: 0}
    - target: {fileID: 1774139029295037957, guid: 9a111df5ba1764633ae982cecde4ff54,
        type: 3}
      propertyPath: m_LocalPosition.x
      value: -0.15180779
      objectReference: {fileID: 0}
    - target: {fileID: 1774139029295037957, guid: 9a111df5ba1764633ae982cecde4ff54,
        type: 3}
      propertyPath: m_LocalPosition.y
      value: 2.5417144
      objectReference: {fileID: 0}
    - target: {fileID: 2486575793143018359, guid: 9a111df5ba1764633ae982cecde4ff54,
        type: 3}
      propertyPath: m_LocalRotation.x
      value: 0
      objectReference: {fileID: 0}
    - target: {fileID: 2486575793143018359, guid: 9a111df5ba1764633ae982cecde4ff54,
        type: 3}
      propertyPath: m_LocalRotation.y
      value: 0
      objectReference: {fileID: 0}
    - target: {fileID: 2486575793143018359, guid: 9a111df5ba1764633ae982cecde4ff54,
        type: 3}
      propertyPath: m_LocalRotation.z
      value: -0.74961436
      objectReference: {fileID: 0}
    - target: {fileID: 2486575793143018359, guid: 9a111df5ba1764633ae982cecde4ff54,
        type: 3}
      propertyPath: m_LocalRotation.w
      value: 0.66187495
      objectReference: {fileID: 0}
    - target: {fileID: 2486575793143018359, guid: 9a111df5ba1764633ae982cecde4ff54,
        type: 3}
      propertyPath: m_LocalEulerAnglesHint.z
      value: 0
      objectReference: {fileID: 0}
    - target: {fileID: 2750183106952145433, guid: 9a111df5ba1764633ae982cecde4ff54,
        type: 3}
      propertyPath: m_LocalRotation.x
      value: 0
      objectReference: {fileID: 0}
    - target: {fileID: 2750183106952145433, guid: 9a111df5ba1764633ae982cecde4ff54,
        type: 3}
      propertyPath: m_LocalRotation.y
      value: 0
      objectReference: {fileID: 0}
    - target: {fileID: 2750183106952145433, guid: 9a111df5ba1764633ae982cecde4ff54,
        type: 3}
      propertyPath: m_LocalRotation.z
      value: 0.32463157
      objectReference: {fileID: 0}
    - target: {fileID: 2750183106952145433, guid: 9a111df5ba1764633ae982cecde4ff54,
        type: 3}
      propertyPath: m_LocalRotation.w
      value: 0.9458406
      objectReference: {fileID: 0}
    - target: {fileID: 2750183106952145433, guid: 9a111df5ba1764633ae982cecde4ff54,
        type: 3}
      propertyPath: m_LocalEulerAnglesHint.z
      value: 0
      objectReference: {fileID: 0}
    - target: {fileID: 2994567824989991159, guid: 9a111df5ba1764633ae982cecde4ff54,
        type: 3}
      propertyPath: m_LocalRotation.x
      value: 0
      objectReference: {fileID: 0}
    - target: {fileID: 2994567824989991159, guid: 9a111df5ba1764633ae982cecde4ff54,
        type: 3}
      propertyPath: m_LocalRotation.y
      value: 0
      objectReference: {fileID: 0}
    - target: {fileID: 2994567824989991159, guid: 9a111df5ba1764633ae982cecde4ff54,
        type: 3}
      propertyPath: m_LocalRotation.z
      value: 0.7322021
      objectReference: {fileID: 0}
    - target: {fileID: 2994567824989991159, guid: 9a111df5ba1764633ae982cecde4ff54,
        type: 3}
      propertyPath: m_LocalRotation.w
      value: 0.6810875
      objectReference: {fileID: 0}
    - target: {fileID: 2994567824989991159, guid: 9a111df5ba1764633ae982cecde4ff54,
        type: 3}
      propertyPath: m_LocalEulerAnglesHint.z
      value: 0
      objectReference: {fileID: 0}
    - target: {fileID: 2994567824989991159, guid: 9a111df5ba1764633ae982cecde4ff54,
        type: 3}
      propertyPath: m_LocalPosition.x
      value: 0.047329187
      objectReference: {fileID: 0}
    - target: {fileID: 2994567824989991159, guid: 9a111df5ba1764633ae982cecde4ff54,
        type: 3}
      propertyPath: m_LocalPosition.y
      value: 2.617493
      objectReference: {fileID: 0}
    - target: {fileID: 3813025345776743882, guid: 9a111df5ba1764633ae982cecde4ff54,
        type: 3}
      propertyPath: m_LocalRotation.x
      value: 0
      objectReference: {fileID: 0}
    - target: {fileID: 3813025345776743882, guid: 9a111df5ba1764633ae982cecde4ff54,
        type: 3}
      propertyPath: m_LocalRotation.y
      value: 0
      objectReference: {fileID: 0}
    - target: {fileID: 3813025345776743882, guid: 9a111df5ba1764633ae982cecde4ff54,
        type: 3}
      propertyPath: m_LocalRotation.z
      value: 0.20794943
      objectReference: {fileID: 0}
    - target: {fileID: 3813025345776743882, guid: 9a111df5ba1764633ae982cecde4ff54,
        type: 3}
      propertyPath: m_LocalRotation.w
      value: 0.97813964
      objectReference: {fileID: 0}
    - target: {fileID: 3813025345776743882, guid: 9a111df5ba1764633ae982cecde4ff54,
        type: 3}
      propertyPath: m_LocalEulerAnglesHint.z
      value: 0
      objectReference: {fileID: 0}
    - target: {fileID: 5671883955551093204, guid: 9a111df5ba1764633ae982cecde4ff54,
        type: 3}
      propertyPath: m_Name
      value: POT_Lv1_NPC_Guard2
      objectReference: {fileID: 0}
    - target: {fileID: 6790163406949550232, guid: 9a111df5ba1764633ae982cecde4ff54,
        type: 3}
      propertyPath: m_LocalPosition.x
      value: 0
      objectReference: {fileID: 0}
    - target: {fileID: 6790163406949550232, guid: 9a111df5ba1764633ae982cecde4ff54,
        type: 3}
      propertyPath: m_LocalPosition.y
      value: 0
      objectReference: {fileID: 0}
    - target: {fileID: 6790163406949550232, guid: 9a111df5ba1764633ae982cecde4ff54,
        type: 3}
      propertyPath: m_LocalPosition.z
      value: 0
      objectReference: {fileID: 0}
    - target: {fileID: 6790163406949550232, guid: 9a111df5ba1764633ae982cecde4ff54,
        type: 3}
      propertyPath: m_LocalRotation.x
      value: -0
      objectReference: {fileID: 0}
    - target: {fileID: 6790163406949550232, guid: 9a111df5ba1764633ae982cecde4ff54,
        type: 3}
      propertyPath: m_LocalRotation.y
      value: -0
      objectReference: {fileID: 0}
    - target: {fileID: 6790163406949550232, guid: 9a111df5ba1764633ae982cecde4ff54,
        type: 3}
      propertyPath: m_LocalRotation.z
      value: -0
      objectReference: {fileID: 0}
    - target: {fileID: 6790163406949550232, guid: 9a111df5ba1764633ae982cecde4ff54,
        type: 3}
      propertyPath: m_LocalRotation.w
      value: 1
      objectReference: {fileID: 0}
    - target: {fileID: 6790163406949550232, guid: 9a111df5ba1764633ae982cecde4ff54,
        type: 3}
      propertyPath: m_RootOrder
      value: 0
      objectReference: {fileID: 0}
    - target: {fileID: 6790163406949550232, guid: 9a111df5ba1764633ae982cecde4ff54,
        type: 3}
      propertyPath: m_LocalEulerAnglesHint.x
      value: 0
      objectReference: {fileID: 0}
    - target: {fileID: 6790163406949550232, guid: 9a111df5ba1764633ae982cecde4ff54,
        type: 3}
      propertyPath: m_LocalEulerAnglesHint.y
      value: 0
      objectReference: {fileID: 0}
    - target: {fileID: 6790163406949550232, guid: 9a111df5ba1764633ae982cecde4ff54,
        type: 3}
      propertyPath: m_LocalEulerAnglesHint.z
      value: 0
      objectReference: {fileID: 0}
    - target: {fileID: 9083036081054364925, guid: 9a111df5ba1764633ae982cecde4ff54,
        type: 3}
      propertyPath: m_LocalRotation.x
      value: 0
      objectReference: {fileID: 0}
    - target: {fileID: 9083036081054364925, guid: 9a111df5ba1764633ae982cecde4ff54,
        type: 3}
      propertyPath: m_LocalRotation.y
      value: 0
      objectReference: {fileID: 0}
    - target: {fileID: 9083036081054364925, guid: 9a111df5ba1764633ae982cecde4ff54,
        type: 3}
      propertyPath: m_LocalRotation.z
      value: -0.6892707
      objectReference: {fileID: 0}
    - target: {fileID: 9083036081054364925, guid: 9a111df5ba1764633ae982cecde4ff54,
        type: 3}
      propertyPath: m_LocalRotation.w
      value: 0.72450393
      objectReference: {fileID: 0}
    - target: {fileID: 9083036081054364925, guid: 9a111df5ba1764633ae982cecde4ff54,
        type: 3}
      propertyPath: m_LocalEulerAnglesHint.z
      value: 0
      objectReference: {fileID: 0}
    m_RemovedComponents: []
  m_SourcePrefab: {fileID: -593439150001759890, guid: 9a111df5ba1764633ae982cecde4ff54,
    type: 3}
--- !u!1 &2138560120852054159 stripped
GameObject:
  m_CorrespondingSourceObject: {fileID: 5671883955551093204, guid: 9a111df5ba1764633ae982cecde4ff54,
    type: 3}
  m_PrefabInstance: {fileID: 5988421298792448347}
  m_PrefabAsset: {fileID: 0}
--- !u!4 &945937160676952515 stripped
Transform:
  m_CorrespondingSourceObject: {fileID: 6790163406949550232, guid: 9a111df5ba1764633ae982cecde4ff54,
    type: 3}
  m_PrefabInstance: {fileID: 5988421298792448347}
  m_PrefabAsset: {fileID: 0}
