%YAML 1.1
%TAG !u! tag:unity3d.com,2011:
--- !u!114 &11400000
MonoBehaviour:
  m_ObjectHideFlags: 0
  m_CorrespondingSourceObject: {fileID: 0}
  m_PrefabInstance: {fileID: 0}
  m_PrefabAsset: {fileID: 0}
  m_GameObject: {fileID: 0}
  m_Enabled: 1
  m_EditorHideFlags: 0
  m_Script: {fileID: 11500000, guid: fb45e005ea94b9d4ea2e3d2ea1876394, type: 3}
  m_Name: AnsweredLog
  m_EditorClassIdentifier: 
  flag: {fileID: 11400000, guid: 8bda9fe1197b2064cbeaca674e9de357, type: 2}
