%YAML 1.1
%TAG !u! tag:unity3d.com,2011:
--- !u!114 &11400000
MonoBehaviour:
  m_ObjectHideFlags: 0
  m_CorrespondingSourceObject: {fileID: 0}
  m_PrefabInstance: {fileID: 0}
  m_PrefabAsset: {fileID: 0}
  m_GameObject: {fileID: 0}
  m_Enabled: 1
  m_EditorHideFlags: 0
  m_Script: {fileID: 11500000, guid: 26ca6380e555fbe438f6170bb63c414b, type: 3}
  m_Name: Didn'tOpenAviarydoor
  m_EditorClassIdentifier: 
  flag: {fileID: 11400000, guid: a5564b0a982b922489aa37e80c45542e, type: 2}
