%YAML 1.1
%TAG !u! tag:unity3d.com,2011:
--- !u!114 &11400000
MonoBehaviour:
  m_ObjectHideFlags: 0
  m_CorrespondingSourceObject: {fileID: 0}
  m_PrefabInstance: {fileID: 0}
  m_PrefabAsset: {fileID: 0}
  m_GameObject: {fileID: 0}
  m_Enabled: 1
  m_EditorHideFlags: 0
  m_Script: {fileID: 11500000, guid: 4b4fe36f9a36744488e3f7241a80a265, type: 3}
  m_Name: AttributeCheck
  m_EditorClassIdentifier: 
  attribute: {fileID: 114536254101625990, guid: 78b40d9e47a5251428dc54e013e2d12f,
    type: 2}
  operation: 0
  value: 2.5
