%YAML 1.1
%TAG !u! tag:unity3d.com,2011:
--- !u!1 &2685996917930776360
GameObject:
  m_ObjectHideFlags: 0
  m_CorrespondingSourceObject: {fileID: 0}
  m_PrefabInstance: {fileID: 0}
  m_PrefabAsset: {fileID: 0}
  serializedVersion: 6
  m_Component:
  - component: {fileID: 3022176645264559162}
  m_Layer: 0
  m_Name: Wall 4
  m_TagString: Untagged
  m_Icon: {fileID: 0}
  m_NavMeshLayer: 0
  m_StaticEditorFlags: 0
  m_IsActive: 1
--- !u!4 &3022176645264559162
Transform:
  m_ObjectHideFlags: 0
  m_CorrespondingSourceObject: {fileID: 0}
  m_PrefabInstance: {fileID: 0}
  m_PrefabAsset: {fileID: 0}
  m_GameObject: {fileID: 2685996917930776360}
  m_LocalRotation: {x: 0, y: 0, z: 0, w: 1}
  m_LocalPosition: {x: -345.93112, y: -25.37905, z: 0}
  m_LocalScale: {x: 1, y: 1, z: 1}
  m_Children:
  - {fileID: 2788739040318285456}
  - {fileID: 4734829602249245936}
  m_Father: {fileID: 0}
  m_RootOrder: 0
  m_LocalEulerAnglesHint: {x: 0, y: 0, z: 0}
--- !u!1001 &6872365247526384667
PrefabInstance:
  m_ObjectHideFlags: 0
  serializedVersion: 2
  m_Modification:
    m_TransformParent: {fileID: 3022176645264559162}
    m_Modifications:
    - target: {fileID: 3169777675584896467, guid: ee2f6583d56e0f94da6b2e30dc162218,
        type: 3}
      propertyPath: m_Name
      value: 'Wall '
      objectReference: {fileID: 0}
    - target: {fileID: 8785428488437093003, guid: ee2f6583d56e0f94da6b2e30dc162218,
        type: 3}
      propertyPath: m_LocalPosition.x
      value: -8.447144
      objectReference: {fileID: 0}
    - target: {fileID: 8785428488437093003, guid: ee2f6583d56e0f94da6b2e30dc162218,
        type: 3}
      propertyPath: m_LocalPosition.y
      value: -1.815506
      objectReference: {fileID: 0}
    - target: {fileID: 8785428488437093003, guid: ee2f6583d56e0f94da6b2e30dc162218,
        type: 3}
      propertyPath: m_LocalPosition.z
      value: 0
      objectReference: {fileID: 0}
    - target: {fileID: 8785428488437093003, guid: ee2f6583d56e0f94da6b2e30dc162218,
        type: 3}
      propertyPath: m_LocalRotation.x
      value: -0
      objectReference: {fileID: 0}
    - target: {fileID: 8785428488437093003, guid: ee2f6583d56e0f94da6b2e30dc162218,
        type: 3}
      propertyPath: m_LocalRotation.y
      value: -0
      objectReference: {fileID: 0}
    - target: {fileID: 8785428488437093003, guid: ee2f6583d56e0f94da6b2e30dc162218,
        type: 3}
      propertyPath: m_LocalRotation.z
      value: -0
      objectReference: {fileID: 0}
    - target: {fileID: 8785428488437093003, guid: ee2f6583d56e0f94da6b2e30dc162218,
        type: 3}
      propertyPath: m_LocalRotation.w
      value: 1
      objectReference: {fileID: 0}
    - target: {fileID: 8785428488437093003, guid: ee2f6583d56e0f94da6b2e30dc162218,
        type: 3}
      propertyPath: m_RootOrder
      value: 0
      objectReference: {fileID: 0}
    - target: {fileID: 8785428488437093003, guid: ee2f6583d56e0f94da6b2e30dc162218,
        type: 3}
      propertyPath: m_LocalEulerAnglesHint.x
      value: 0
      objectReference: {fileID: 0}
    - target: {fileID: 8785428488437093003, guid: ee2f6583d56e0f94da6b2e30dc162218,
        type: 3}
      propertyPath: m_LocalEulerAnglesHint.y
      value: 0
      objectReference: {fileID: 0}
    - target: {fileID: 8785428488437093003, guid: ee2f6583d56e0f94da6b2e30dc162218,
        type: 3}
      propertyPath: m_LocalEulerAnglesHint.z
      value: 0
      objectReference: {fileID: 0}
    m_RemovedComponents: []
  m_SourcePrefab: {fileID: 100100000, guid: ee2f6583d56e0f94da6b2e30dc162218, type: 3}
--- !u!4 &2788739040318285456 stripped
Transform:
  m_CorrespondingSourceObject: {fileID: 8785428488437093003, guid: ee2f6583d56e0f94da6b2e30dc162218,
    type: 3}
  m_PrefabInstance: {fileID: 6872365247526384667}
  m_PrefabAsset: {fileID: 0}
--- !u!1001 &8877268350886238520
PrefabInstance:
  m_ObjectHideFlags: 0
  serializedVersion: 2
  m_Modification:
    m_TransformParent: {fileID: 3022176645264559162}
    m_Modifications:
    - target: {fileID: 4217369159328488903, guid: c2a25baac49b1dd41be448488ebe9697,
        type: 3}
      propertyPath: m_Name
      value: Window 2 (1)
      objectReference: {fileID: 0}
    - target: {fileID: 4217369159328488904, guid: c2a25baac49b1dd41be448488ebe9697,
        type: 3}
      propertyPath: m_LocalPosition.x
      value: -4.5956
      objectReference: {fileID: 0}
    - target: {fileID: 4217369159328488904, guid: c2a25baac49b1dd41be448488ebe9697,
        type: 3}
      propertyPath: m_LocalPosition.y
      value: -0.948
      objectReference: {fileID: 0}
    - target: {fileID: 4217369159328488904, guid: c2a25baac49b1dd41be448488ebe9697,
        type: 3}
      propertyPath: m_LocalPosition.z
      value: 0
      objectReference: {fileID: 0}
    - target: {fileID: 4217369159328488904, guid: c2a25baac49b1dd41be448488ebe9697,
        type: 3}
      propertyPath: m_LocalRotation.x
      value: -0
      objectReference: {fileID: 0}
    - target: {fileID: 4217369159328488904, guid: c2a25baac49b1dd41be448488ebe9697,
        type: 3}
      propertyPath: m_LocalRotation.y
      value: -0
      objectReference: {fileID: 0}
    - target: {fileID: 4217369159328488904, guid: c2a25baac49b1dd41be448488ebe9697,
        type: 3}
      propertyPath: m_LocalRotation.z
      value: -0
      objectReference: {fileID: 0}
    - target: {fileID: 4217369159328488904, guid: c2a25baac49b1dd41be448488ebe9697,
        type: 3}
      propertyPath: m_LocalRotation.w
      value: 1
      objectReference: {fileID: 0}
    - target: {fileID: 4217369159328488904, guid: c2a25baac49b1dd41be448488ebe9697,
        type: 3}
      propertyPath: m_RootOrder
      value: 1
      objectReference: {fileID: 0}
    - target: {fileID: 4217369159328488904, guid: c2a25baac49b1dd41be448488ebe9697,
        type: 3}
      propertyPath: m_LocalEulerAnglesHint.x
      value: 0
      objectReference: {fileID: 0}
    - target: {fileID: 4217369159328488904, guid: c2a25baac49b1dd41be448488ebe9697,
        type: 3}
      propertyPath: m_LocalEulerAnglesHint.y
      value: 0
      objectReference: {fileID: 0}
    - target: {fileID: 4217369159328488904, guid: c2a25baac49b1dd41be448488ebe9697,
        type: 3}
      propertyPath: m_LocalEulerAnglesHint.z
      value: 0
      objectReference: {fileID: 0}
    - target: {fileID: 4217369159328488904, guid: c2a25baac49b1dd41be448488ebe9697,
        type: 3}
      propertyPath: m_LocalScale.y
      value: 1.002
      objectReference: {fileID: 0}
    m_RemovedComponents: []
  m_SourcePrefab: {fileID: 100100000, guid: c2a25baac49b1dd41be448488ebe9697, type: 3}
--- !u!4 &4734829602249245936 stripped
Transform:
  m_CorrespondingSourceObject: {fileID: 4217369159328488904, guid: c2a25baac49b1dd41be448488ebe9697,
    type: 3}
  m_PrefabInstance: {fileID: 8877268350886238520}
  m_PrefabAsset: {fileID: 0}
