%YAML 1.1
%TAG !u! tag:unity3d.com,2011:
--- !u!1 &3169777675584896467
GameObject:
  m_ObjectHideFlags: 0
  m_CorrespondingSourceObject: {fileID: 0}
  m_PrefabInstance: {fileID: 0}
  m_PrefabAsset: {fileID: 0}
  serializedVersion: 6
  m_Component:
  - component: {fileID: 8785428488437093003}
  m_Layer: 0
  m_Name: 'Wall '
  m_TagString: Untagged
  m_Icon: {fileID: 0}
  m_NavMeshLayer: 0
  m_StaticEditorFlags: 0
  m_IsActive: 1
--- !u!4 &8785428488437093003
Transform:
  m_ObjectHideFlags: 0
  m_CorrespondingSourceObject: {fileID: 0}
  m_PrefabInstance: {fileID: 0}
  m_PrefabAsset: {fileID: 0}
  m_GameObject: {fileID: 3169777675584896467}
  m_LocalRotation: {x: 0, y: 0, z: 0, w: 1}
  m_LocalPosition: {x: -345.52206, y: -31.577007, z: 0}
  m_LocalScale: {x: 1, y: 1, z: 1}
  m_Children:
  - {fileID: 1792641805742062922}
  - {fileID: 6213817444062226706}
  m_Father: {fileID: 0}
  m_RootOrder: 0
  m_LocalEulerAnglesHint: {x: 0, y: 0, z: 0}
--- !u!1001 &3216612230696158472
PrefabInstance:
  m_ObjectHideFlags: 0
  serializedVersion: 2
  m_Modification:
    m_TransformParent: {fileID: 8785428488437093003}
    m_Modifications:
    - target: {fileID: 8833909363185167386, guid: 9bf34fd45d4762545a1ab925ac350724,
        type: 3}
      propertyPath: m_LocalPosition.x
      value: 1.4515
      objectReference: {fileID: 0}
    - target: {fileID: 8833909363185167386, guid: 9bf34fd45d4762545a1ab925ac350724,
        type: 3}
      propertyPath: m_LocalPosition.y
      value: 0.86732
      objectReference: {fileID: 0}
    - target: {fileID: 8833909363185167386, guid: 9bf34fd45d4762545a1ab925ac350724,
        type: 3}
      propertyPath: m_LocalPosition.z
      value: 0
      objectReference: {fileID: 0}
    - target: {fileID: 8833909363185167386, guid: 9bf34fd45d4762545a1ab925ac350724,
        type: 3}
      propertyPath: m_LocalRotation.x
      value: -0
      objectReference: {fileID: 0}
    - target: {fileID: 8833909363185167386, guid: 9bf34fd45d4762545a1ab925ac350724,
        type: 3}
      propertyPath: m_LocalRotation.y
      value: -1
      objectReference: {fileID: 0}
    - target: {fileID: 8833909363185167386, guid: 9bf34fd45d4762545a1ab925ac350724,
        type: 3}
      propertyPath: m_LocalRotation.z
      value: -0
      objectReference: {fileID: 0}
    - target: {fileID: 8833909363185167386, guid: 9bf34fd45d4762545a1ab925ac350724,
        type: 3}
      propertyPath: m_LocalRotation.w
      value: 0
      objectReference: {fileID: 0}
    - target: {fileID: 8833909363185167386, guid: 9bf34fd45d4762545a1ab925ac350724,
        type: 3}
      propertyPath: m_RootOrder
      value: 1
      objectReference: {fileID: 0}
    - target: {fileID: 8833909363185167386, guid: 9bf34fd45d4762545a1ab925ac350724,
        type: 3}
      propertyPath: m_LocalEulerAnglesHint.x
      value: 0
      objectReference: {fileID: 0}
    - target: {fileID: 8833909363185167386, guid: 9bf34fd45d4762545a1ab925ac350724,
        type: 3}
      propertyPath: m_LocalEulerAnglesHint.y
      value: -180
      objectReference: {fileID: 0}
    - target: {fileID: 8833909363185167386, guid: 9bf34fd45d4762545a1ab925ac350724,
        type: 3}
      propertyPath: m_LocalEulerAnglesHint.z
      value: 0
      objectReference: {fileID: 0}
    - target: {fileID: 8833909363185167386, guid: 9bf34fd45d4762545a1ab925ac350724,
        type: 3}
      propertyPath: m_LocalScale.x
      value: -1
      objectReference: {fileID: 0}
    - target: {fileID: 8833909363185167387, guid: 9bf34fd45d4762545a1ab925ac350724,
        type: 3}
      propertyPath: m_Name
      value: Wall - Dark (1)
      objectReference: {fileID: 0}
    m_RemovedComponents: []
  m_SourcePrefab: {fileID: 100100000, guid: 9bf34fd45d4762545a1ab925ac350724, type: 3}
--- !u!4 &6213817444062226706 stripped
Transform:
  m_CorrespondingSourceObject: {fileID: 8833909363185167386, guid: 9bf34fd45d4762545a1ab925ac350724,
    type: 3}
  m_PrefabInstance: {fileID: 3216612230696158472}
  m_PrefabAsset: {fileID: 0}
--- !u!1001 &7731557992924363652
PrefabInstance:
  m_ObjectHideFlags: 0
  serializedVersion: 2
  m_Modification:
    m_TransformParent: {fileID: 8785428488437093003}
    m_Modifications:
    - target: {fileID: 8335245086628742862, guid: 0785968908c22a24d956be5e52d48ec7,
        type: 3}
      propertyPath: m_LocalPosition.x
      value: -0.94851685
      objectReference: {fileID: 0}
    - target: {fileID: 8335245086628742862, guid: 0785968908c22a24d956be5e52d48ec7,
        type: 3}
      propertyPath: m_LocalPosition.y
      value: 0.8673153
      objectReference: {fileID: 0}
    - target: {fileID: 8335245086628742862, guid: 0785968908c22a24d956be5e52d48ec7,
        type: 3}
      propertyPath: m_LocalPosition.z
      value: 0
      objectReference: {fileID: 0}
    - target: {fileID: 8335245086628742862, guid: 0785968908c22a24d956be5e52d48ec7,
        type: 3}
      propertyPath: m_LocalRotation.x
      value: -0
      objectReference: {fileID: 0}
    - target: {fileID: 8335245086628742862, guid: 0785968908c22a24d956be5e52d48ec7,
        type: 3}
      propertyPath: m_LocalRotation.y
      value: -1
      objectReference: {fileID: 0}
    - target: {fileID: 8335245086628742862, guid: 0785968908c22a24d956be5e52d48ec7,
        type: 3}
      propertyPath: m_LocalRotation.z
      value: -0
      objectReference: {fileID: 0}
    - target: {fileID: 8335245086628742862, guid: 0785968908c22a24d956be5e52d48ec7,
        type: 3}
      propertyPath: m_LocalRotation.w
      value: 0
      objectReference: {fileID: 0}
    - target: {fileID: 8335245086628742862, guid: 0785968908c22a24d956be5e52d48ec7,
        type: 3}
      propertyPath: m_RootOrder
      value: 0
      objectReference: {fileID: 0}
    - target: {fileID: 8335245086628742862, guid: 0785968908c22a24d956be5e52d48ec7,
        type: 3}
      propertyPath: m_LocalEulerAnglesHint.x
      value: 0
      objectReference: {fileID: 0}
    - target: {fileID: 8335245086628742862, guid: 0785968908c22a24d956be5e52d48ec7,
        type: 3}
      propertyPath: m_LocalEulerAnglesHint.y
      value: -180
      objectReference: {fileID: 0}
    - target: {fileID: 8335245086628742862, guid: 0785968908c22a24d956be5e52d48ec7,
        type: 3}
      propertyPath: m_LocalEulerAnglesHint.z
      value: 0
      objectReference: {fileID: 0}
    - target: {fileID: 8335245086628742863, guid: 0785968908c22a24d956be5e52d48ec7,
        type: 3}
      propertyPath: m_Name
      value: Wall - Dark
      objectReference: {fileID: 0}
    m_RemovedComponents: []
  m_SourcePrefab: {fileID: 100100000, guid: 0785968908c22a24d956be5e52d48ec7, type: 3}
--- !u!4 &1792641805742062922 stripped
Transform:
  m_CorrespondingSourceObject: {fileID: 8335245086628742862, guid: 0785968908c22a24d956be5e52d48ec7,
    type: 3}
  m_PrefabInstance: {fileID: 7731557992924363652}
  m_PrefabAsset: {fileID: 0}
