%YAML 1.1
%TAG !u! tag:unity3d.com,2011:
--- !u!114 &11400000
MonoBehaviour:
  m_ObjectHideFlags: 0
  m_CorrespondingSourceObject: {fileID: 0}
  m_PrefabInternal: {fileID: 0}
  m_GameObject: {fileID: 0}
  m_Enabled: 1
  m_EditorHideFlags: 0
  m_Script: {fileID: 11500000, guid: 6a1f1dad75490c9458e7ca24e37ae1c3, type: 3}
  m_Name: A1
  m_EditorClassIdentifier: 
  AudioClip: {fileID: 8300000, guid: d1deb0d7884e393458597dd8ce75b508, type: 3}
  DialogueText: "Stand still novice, you'll have more than enough time to run around
    in a few minutes.\r"
  OptionInfo:
    OptionText: 
    Attribute: {fileID: 0}
    Weight: 0
    TargetDialogue: {fileID: 0}
    Intent: 0
  OptionCooperate:
    OptionText: 
    Attribute: {fileID: 0}
    Weight: 0
    TargetDialogue: {fileID: 0}
    Intent: 0
  OptionAnswers:
  - OptionText: (next)
    Attribute: {fileID: 0}
    Weight: 0
    TargetDialogue: {fileID: 11400000, guid: 46cefd3055b69dd489237a3138fe946a, type: 2}
    Intent: 0
