%YAML 1.1
%TAG !u! tag:unity3d.com,2011:
--- !u!114 &11400000
MonoBehaviour:
  m_ObjectHideFlags: 0
  m_CorrespondingSourceObject: {fileID: 0}
  m_PrefabInternal: {fileID: 0}
  m_GameObject: {fileID: 0}
  m_Enabled: 1
  m_EditorHideFlags: 0
  m_Script: {fileID: 11500000, guid: 6a1f1dad75490c9458e7ca24e37ae1c3, type: 3}
  m_Name: A2
  m_EditorClassIdentifier: 
  AudioClip: {fileID: 8300000, guid: d1deb0d7884e393458597dd8ce75b508, type: 3}
  DialogueText: "The test consists in retrieving a certain creature. Well... not the
    actual creature but one of her\r\neggs. The nest is located on the apical sector
    of the forest, so be careful not to trip while you're\r\nclimbing."
  OptionInfo:
    OptionText: 
    Attribute: {fileID: 0}
    Weight: 0
    TargetDialogue: {fileID: 0}
    Intent: 0
  OptionCooperate:
    OptionText: 
    Attribute: {fileID: 0}
    Weight: 0
    TargetDialogue: {fileID: 0}
    Intent: 0
  OptionAnswers:
  - OptionText: (What kind of creature are we talking about, sir?)
    Attribute: {fileID: 0}
    Weight: 0
    TargetDialogue: {fileID: 11400000, guid: 6cb66dec2403b4d48bacce1d137fdfbe, type: 2}
    Intent: 0
  - OptionText: (Is it okay for us to fetch a wild species egg?
    Attribute: {fileID: 0}
    Weight: 0
    TargetDialogue: {fileID: 11400000, guid: 6fe0b895a09048f448fb3a0d80b31ac7, type: 2}
    Intent: 0
