%YAML 1.1
%TAG !u! tag:unity3d.com,2011:
--- !u!114 &11400000
MonoBehaviour:
  m_ObjectHideFlags: 0
  m_CorrespondingSourceObject: {fileID: 0}
  m_PrefabInternal: {fileID: 0}
  m_GameObject: {fileID: 0}
  m_Enabled: 1
  m_EditorHideFlags: 0
  m_Script: {fileID: 11500000, guid: 6a1f1dad75490c9458e7ca24e37ae1c3, type: 3}
  m_Name: A5
  m_EditorClassIdentifier: 
  AudioClip: {fileID: 8300000, guid: d1deb0d7884e393458597dd8ce75b508, type: 3}
  DialogueText: "Well, they are very fond of this plant that grows on trees, that
    red one with blue spots on\r\nits leaves. I remember that one time when I found
    one between....\r\nHEY! I see what you're trying to do, novice. You won't get
    any more hints from me, so get\r\ngoing."
  OptionInfo:
    OptionText: 
    Attribute: {fileID: 0}
    Weight: 0
    TargetDialogue: {fileID: 0}
    Intent: 0
  OptionCooperate:
    OptionText: 
    Attribute: {fileID: 0}
    Weight: 0
    TargetDialogue: {fileID: 0}
    Intent: 0
  OptionAnswers:
  - OptionText: "(close)\r"
    Attribute: {fileID: 0}
    Weight: 0
    TargetDialogue: {fileID: 0}
    Intent: 0
