%YAML 1.1
%TAG !u! tag:unity3d.com,2011:
--- !u!1001 &7503961818018789633
PrefabInstance:
  m_ObjectHideFlags: 0
  serializedVersion: 2
  m_Modification:
    m_TransformParent: {fileID: 0}
    m_Modifications:
    - target: {fileID: 2195501978814085968, guid: dfebfc6654ef68c4ea219e29efd4930d,
        type: 3}
      propertyPath: m_Name
      value: TerrainDecor
      objectReference: {fileID: 0}
    - target: {fileID: 2195501978814085969, guid: dfebfc6654ef68c4ea219e29efd4930d,
        type: 3}
      propertyPath: m_LocalPosition.x
      value: -406.16583
      objectReference: {fileID: 0}
    - target: {fileID: 2195501978814085969, guid: dfebfc6654ef68c4ea219e29efd4930d,
        type: 3}
      propertyPath: m_LocalPosition.y
      value: -4.970082
      objectReference: {fileID: 0}
    - target: {fileID: 2195501978814085969, guid: dfebfc6654ef68c4ea219e29efd4930d,
        type: 3}
      propertyPath: m_LocalPosition.z
      value: 0
      objectReference: {fileID: 0}
    - target: {fileID: 2195501978814085969, guid: dfebfc6654ef68c4ea219e29efd4930d,
        type: 3}
      propertyPath: m_LocalRotation.x
      value: -0
      objectReference: {fileID: 0}
    - target: {fileID: 2195501978814085969, guid: dfebfc6654ef68c4ea219e29efd4930d,
        type: 3}
      propertyPath: m_LocalRotation.y
      value: -0
      objectReference: {fileID: 0}
    - target: {fileID: 2195501978814085969, guid: dfebfc6654ef68c4ea219e29efd4930d,
        type: 3}
      propertyPath: m_LocalRotation.z
      value: -0
      objectReference: {fileID: 0}
    - target: {fileID: 2195501978814085969, guid: dfebfc6654ef68c4ea219e29efd4930d,
        type: 3}
      propertyPath: m_LocalRotation.w
      value: 1
      objectReference: {fileID: 0}
    - target: {fileID: 2195501978814085969, guid: dfebfc6654ef68c4ea219e29efd4930d,
        type: 3}
      propertyPath: m_RootOrder
      value: 0
      objectReference: {fileID: 0}
    - target: {fileID: 2195501978814085969, guid: dfebfc6654ef68c4ea219e29efd4930d,
        type: 3}
      propertyPath: m_LocalEulerAnglesHint.x
      value: 0
      objectReference: {fileID: 0}
    - target: {fileID: 2195501978814085969, guid: dfebfc6654ef68c4ea219e29efd4930d,
        type: 3}
      propertyPath: m_LocalEulerAnglesHint.y
      value: 0
      objectReference: {fileID: 0}
    - target: {fileID: 2195501978814085969, guid: dfebfc6654ef68c4ea219e29efd4930d,
        type: 3}
      propertyPath: m_LocalEulerAnglesHint.z
      value: 0
      objectReference: {fileID: 0}
    - target: {fileID: 2195501978814085981, guid: dfebfc6654ef68c4ea219e29efd4930d,
        type: 3}
      propertyPath: m_SelectedEditorRenderState
      value: 3
      objectReference: {fileID: 0}
    - target: {fileID: 4433086081708640474, guid: b9d65243895f1f543af1973bef61aef0,
        type: 3}
      propertyPath: m_LocalPosition.y
      value: -45.9
      objectReference: {fileID: 0}
    - target: {fileID: 4433086081708640474, guid: b9d65243895f1f543af1973bef61aef0,
        type: 3}
      propertyPath: m_LocalPosition.x
      value: -398.39
      objectReference: {fileID: 0}
    m_RemovedComponents:
    - {fileID: 2195501978814085971, guid: dfebfc6654ef68c4ea219e29efd4930d, type: 3}
  m_SourcePrefab: {fileID: 100100000, guid: dfebfc6654ef68c4ea219e29efd4930d, type: 3}
