%YAML 1.1
%TAG !u! tag:unity3d.com,2011:
--- !u!114 &11400000
MonoBehaviour:
  m_ObjectHideFlags: 0
  m_CorrespondingSourceObject: {fileID: 0}
  m_PrefabInstance: {fileID: 0}
  m_PrefabAsset: {fileID: 0}
  m_GameObject: {fileID: 0}
  m_Enabled: 1
  m_EditorHideFlags: 0
  m_Script: {fileID: 11500000, guid: 7e99a40dca1ce4d4db7c9cb4f1deae9e, type: 3}
  m_Name: AddInsistedWithKalina
  m_EditorClassIdentifier: 
  flag: {fileID: 11400000, guid: fc2454376eafce249a2e60ba2c852d62, type: 2}
  add: 1
